{
    "/services/oauth2/token": {
        "target": "https://login.salesforce.com/services/oauth2/token",
        "secure": false,
        "changeOrigin": true,
        "logLevel": "debug",
        "pathRewrite": {"^/services/oauth2/token" : ""}
    },
    "/services/apexrest/": {
        "target": "https://na85.salesforce.com/services/apexrest/",
        "secure": false,
        "changeOrigin": true,
        "logLevel": "debug",
        "pathRewrite": {"^/services/apexrest/^" : ""}
    }

}